…
This repo contains example ETL jobs for processing daily trading data from the Deutsche Börse Group.

## The Problem

## Usage

```bash
python ./run.py configs/config.yaml
```

Example source data

```
#> # A tibble: 193,095 x 8
#>    ISIN         Date       Time   StartPrice MaxPrice MinPrice EndPrice TradedVolume
#>    <chr>        <date>     <time>      <dbl>    <dbl>    <dbl>    <dbl>        <dbl>
#>  1 AT0000A0E9W5 2021-09-16 07:00        22.5     22.5     22.5     22.5         3279
#>  2 DE000A0DJ6J9 2021-09-16 07:00        37.6     37.6     37.5     37.5         1281
#>  3 DE000A0D6554 2021-09-16 07:00        15.2     15.2     15.1     15.1         7066
#>  4 DE000A0D9PT0 2021-09-16 07:00       188.     188      188.     188            374
#>  5 DE000A0HN5C6 2021-09-16 07:00        53.0     53.0     53.0     53.0         9971
#>  6 DE000A0JL9W6 2021-09-16 07:00        53.8     53.8     53.4     53.7          676
#>  7 DE000A0LD2U1 2021-09-16 07:00        16.0     16.0     16.0     16.0         4160
#>  8 DE000A0LD6E6 2021-09-16 07:00        88.9     89.2     88.8     88.9         1098
#>  9 DE000A0S8488 2021-09-16 07:00        18.9     18.9     18.7     18.8         7719
#> 10 DE000A0WMPJ6 2021-09-16 07:00        24.7     24.7     24.7     24.7         2211
#> # ... with 193,085 more rows
```

Example processed data

```
#> # A tibble: 3,050 x 7
#>    isin      opening_price closing_price min_price max_price traded_volume   pct
#>    <chr>             <dbl>         <dbl>     <dbl>     <dbl>         <int> <dbl>
#>  1 AT00000F~          9.65          9.38      9.35      9.65          1324  0.52
#>  2 AT000060~         21.5          21.4      21.3      21.5           2486  0.37
#>  3 AT000060~         17.2          17.2      17.1      17.2            256  0.47
#>  4 AT000064~        103.          102.      101.      103.             429 -1.71
#>  5 AT000065~         35.2          35.0      35.0      35.5            180  0.2
#>  6 AT000065~         20.6          20.8      20.5      20.8            600  0.49
#>  7 AT000072~          7.57          7.35      7.35      7.57           203  2.85
#>  8 AT000073~         48.9          47.9      47.9      48.9            318 -0.16
#>  9 AT000074~         25.1          24.5      24.5      25.1            100  1.41
#> 10 AT000074~         48.6          50.1      48.6      50.6          14358  0.68
#> # ... with 3,040 more rows
```
…
